{"ccmanager":[
    {
      "organization": "",
      "department": "",
      "leader": "",
      "accountLevel": "",
      "usageMonth": [{
        "usageMonth": "",
        "reportingPeriod": "",
        "totalAmount": ""
        }]
    }
]}
